…
# 8. Writing to a File
Always use this encoding
- UTF-8
- ISO8601 for dates and datetimes
```{r code}
# Note that the type information is lost when you save to csv:
challenge
#> # A tibble: 2,000 x 2
#>       x y         
#>   <dbl> <date>    
#> 1   404 NA        
#> 2  4172 NA        
#> 3  3004 NA        
#> 4   787 NA        
#> 5    37 NA        
#> 6  2332 NA        
#> # … with 1,994 more rows

write_csv(challenge, "challenge-2.csv")
read_csv("challenge-2.csv")
#> Parsed with column specification:
#> cols(
#>   x = col_double(),
#>   y = col_logical()
#> )
#> # A tibble: 2,000 x 2
#>       x y    
#>   <dbl> <lgl>
#> 1   404 NA   
#> 2  4172 NA   
#> 3  3004 NA   
#> 4   787 NA   
#> 5    37 NA   
#> 6  2332 NA   
#> # … with 1,994 more rows


# 1. Alternative : Using RDS
write_rds(challenge, "challenge.rds")
read_rds("challenge.rds")
#> # A tibble: 2,000 x 2
#>       x y         
#>   <dbl> <date>    
#> 1   404 NA        
#> 2  4172 NA        
#> 3  3004 NA        
#> 4   787 NA        
#> 5    37 NA        
#> 6  2332 NA        
#> # … with 1,994 more rows

# 2. Alternative : Using feather
library(feather)
write_feather(challenge, "challenge.feather")
read_feather("challenge.feather")
#> # A tibble: 2,000 x 2
#>       x      y
#>   <dbl> <date>
#> 1   404   <NA>
#> 2  4172   <NA>
#> 3  3004   <NA>
#> 4   787   <NA>
#> 5    37   <NA>
#> 6  2332   <NA>
#> # ... with 1,994 more rows
```
