16_Exercise_R-For-DataScientist
…
3. Compare air_time with the duration between the departure and arrival. Explain your findings. (Hint: consider the location of the airport)

the air_time will definitely different because of different time zone between two airport

flights_dt %>%
  mutate(
    airtime_calc = arr_time - dep_time,
    airtime_diff = as.numeric(airtime_calc) - air_time
  ) %>%
  select(dep_time, arr_time, air_time, airtime_calc, airtime_diff)

## # A tibble: 328,063 x 5
##    dep_time            arr_time            air_time airtime_calc
##    <dttm>              <dttm>                 <dbl> <time>      
##  1 2013-01-01 05:17:00 2013-01-01 08:30:00      227 193 mins    
##  2 2013-01-01 05:33:00 2013-01-01 08:50:00      227 197 mins    
##  3 2013-01-01 05:42:00 2013-01-01 09:23:00      160 221 mins    
##  4 2013-01-01 05:44:00 2013-01-01 10:04:00      183 260 mins    
##  5 2013-01-01 05:54:00 2013-01-01 08:12:00      116 138 mins    
##  6 2013-01-01 05:54:00 2013-01-01 07:40:00      150 106 mins    
##  7 2013-01-01 05:55:00 2013-01-01 09:13:00      158 198 mins    
##  8 2013-01-01 05:57:00 2013-01-01 07:09:00       53  72 mins    
##  9 2013-01-01 05:57:00 2013-01-01 08:38:00      140 161 mins    
## 10 2013-01-01 05:58:00 2013-01-01 07:53:00      138 115 mins    
## #  with 328,053 more rows, and 1 more variable: airtime_diff <dbl>
…
